Not using cached read wrapper
Started task graph with 5 named threads and 23 total threads with 3 sets of task threads.
Stats thread started at 0.439495
Loaded GFSDK_Aftermath_Lib.x64.dll
ICU TimeZone Detection - Raw Offset: +0:00, Platform Override: ''
Mounting plugin MeshPainting
Mounting plugin XGEController
Mounting plugin Paper2D
Mounting plugin AISupport
Mounting plugin EnvironmentQueryEditor
Mounting plugin LightPropagationVolume
Mounting plugin CameraShakePreviewer
Mounting plugin AssetManagerEditor
Mounting plugin CryptoKeys
Mounting plugin CurveEditorTools
Mounting plugin DataValidation
Mounting plugin FacialAnimation
Mounting plugin GameplayTagsEditor
Mounting plugin MacGraphicsSwitching
Mounting plugin MaterialAnalyzer
Mounting plugin MobileLauncherProfileWizard
Mounting plugin PluginBrowser
Mounting plugin GeometryMode
Mounting plugin SpeedTreeImporter
Mounting plugin AlembicImporter
Mounting plugin AutomationUtils
Mounting plugin ChaosCloth
Mounting plugin BackChannel
Mounting plugin ChaosEditor
Mounting plugin ChaosSolverPlugin
Mounting plugin ChaosClothEditor
Mounting plugin ChaosNiagara
Mounting plugin CharacterAI
Mounting plugin GeometryCache
Mounting plugin GeometryCollectionPlugin
Mounting plugin GeometryProcessing
Mounting plugin MotoSynth
Mounting plugin AnimationSharing
Mounting plugin PlanarCut
Mounting plugin PlatformCrypto
Mounting plugin Niagara
Mounting plugin ProxyLODPlugin
Mounting plugin SkeletalReduction
Mounting plugin CodeLiteSourceCodeAccess
Mounting plugin CLionSourceCodeAccess
Mounting plugin GitSourceControl
Mounting plugin KDevelopSourceCodeAccess
Mounting plugin PerforceSourceControl
Mounting plugin PlasticSourceControl
Mounting plugin NullSourceCodeAccess
Mounting plugin LuminPlatformFeatures
Mounting plugin PluginUtils
Mounting plugin PropertyAccessNode
Mounting plugin MagicLeap
Mounting plugin RiderSourceCodeAccess
Mounting plugin SubversionSourceControl
Mounting plugin UObjectPlugin
Mounting plugin VisualStudioCodeSourceCodeAccess
Mounting plugin MagicLeapLightEstimation
Mounting plugin MagicLeapMedia
Mounting plugin VisualStudioSourceCodeAccess
Mounting plugin XCodeSourceCodeAccess
Mounting plugin MagicLeapPassableWorld
Mounting plugin MLSDK
Mounting plugin DatasmithContent
Mounting plugin AndroidMedia
Mounting plugin AvfMedia
Mounting plugin VariantManagerContent
Mounting plugin ImgMedia
Mounting plugin MediaPlayerEditor
Mounting plugin WebMMedia
Mounting plugin WmfMedia
Mounting plugin TcpMessaging
Mounting plugin ActorSequence
Mounting plugin UdpMessaging
Mounting plugin MediaCompositing
Mounting plugin LevelSequenceEditor
Mounting plugin MatineeToLevelSequence
Mounting plugin TemplateSequence
Mounting plugin OnlineSubsystem
Mounting plugin OnlineSubsystemUtils
Mounting plugin ActorLayerUtilities
Mounting plugin LauncherChunkInstaller
Mounting plugin AndroidDeviceProfileSelector
Mounting plugin AndroidMoviePlayer
Mounting plugin AndroidPermission
Mounting plugin OnlineSubsystemNull
Mounting plugin AppleImageUtils
Mounting plugin AppleMoviePlayer
Mounting plugin AssetTags
Mounting plugin AudioCapture
Mounting plugin AudioSynesthesia
Mounting plugin CableComponent
Mounting plugin ChunkDownloader
Mounting plugin CustomMeshComponent
Mounting plugin EditableMesh
Mounting plugin ExampleDeviceProfileSelector
Mounting plugin ArchVisCharacter
Mounting plugin GoogleCloudMessaging
Mounting plugin GooglePAD
Mounting plugin IOSDeviceProfileSelector
Mounting plugin LinuxDeviceProfileSelector
Mounting plugin LocationServicesBPLibrary
Mounting plugin MobilePatchingUtils
Mounting plugin PhysXVehicles
Mounting plugin PostSplashScreen
Mounting plugin ProceduralMeshComponent
Mounting plugin PropertyAccessEditor
Mounting plugin RuntimePhysXCooking
Mounting plugin SignificanceManager
Mounting plugin SoundFields
Mounting plugin Synthesis
Mounting plugin WebMMoviePlayer
Mounting plugin WindowsMoviePlayer
Mounting plugin ScreenshotTools
Mounting plugin ContentBrowserClassDataSource
Mounting plugin ContentBrowserAssetDataSource
Mounting plugin OnlineSubsystemGooglePlay
Mounting plugin OnlineSubsystemIOS
Mounting plugin OculusVR
Mounting plugin SteamVR
Cleaning working directory: C:/Users/Candyman/AppData/Local/Temp/UnrealXGEWorkingDir/
Cannot use XGE Controller as Incredibuild is not installed on this machine.
Using libcurl 7.55.1-DEV
 - built for x86_64-pc-win32
 - supports SSL with OpenSSL/1.1.1
 - supports HTTP deflate (compression) using libz 1.2.8
 - other features:
     CURL_VERSION_SSL
     CURL_VERSION_LIBZ
     CURL_VERSION_IPV6
     CURL_VERSION_ASYNCHDNS
     CURL_VERSION_LARGEFILE
     CURL_VERSION_IDN
 CurlRequestOptions (configurable via config and command line):
 - bVerifyPeer = true  - Libcurl will verify peer certificate
 - bUseHttpProxy = false  - Libcurl will NOT use HTTP proxy
 - bDontReuseConnections = false  - Libcurl will reuse connections
 - MaxHostConnections = 16  - Libcurl will limit the number of connections to a host
 - LocalHostAddr = Default
 - BufferSize = 65536
OSS: Creating online subsystem instance for: NULL
WinSock: version 1.1 (2.2), MaxSocks=32767, MaxUdp=65467
OSS: TryLoadSubsystemAndSetDefault: Loaded subsystem for module [NULL]
Build: ++UE4+Release-4.26-CL-15973114
Engine Version: 4.26.2-15973114+++UE4+Release-4.26
Compatible Engine Version: 4.26.0-14830424+++UE4+Release-4.26
Net CL: 14830424
OS: Windows 10 (Release 2009) (), CPU: AMD FX(tm)-8300 Eight-Core Processor           , GPU: Radeon RX 560 Series
Compiled (64-bit): Apr 12 2021 06:14:10
Compiled with Visual C++: 19.24.28315.00
Build Configuration: Development
Branch Name: ++UE4+Release-4.26
Command Line:  -skipcompile
Base Directory: E:/Program Files/Epic Games/UE_4.26/Engine/Binaries/Win64/
Allocator: TBB
Installed Engine Build: 1
Number of dev versions registered: 29
  Dev-Blueprints (B0D832E4-1F89-4F0D-ACCF-7EB736FD4AA2): 10
  Dev-Build (E1C64328-A22C-4D53-A36C-8E866417BD8C): 0
  Dev-Core (375EC13C-06E4-48FB-B500-84F0262A717E): 4
  Dev-Editor (E4B068ED-F494-42E9-A231-DA0B2E46BB41): 40
  Dev-Framework (CFFC743F-43B0-4480-9391-14DF171D2073): 37
  Dev-Mobile (B02B49B5-BB20-44E9-A304-32B752E40360): 3
  Dev-Networking (A4E4105C-59A1-49B5-A7C5-40C4547EDFEE): 0
  Dev-Online (39C831C9-5AE6-47DC-9A44-9C173E1C8E7C): 0
  Dev-Physics (78F01B33-EBEA-4F98-B9B4-84EACCB95AA2): 4
  Dev-Platform (6631380F-2D4D-43E0-8009-CF276956A95A): 0
  Dev-Rendering (12F88B9F-8875-4AFC-A67C-D90C383ABD29): 44
  Dev-Sequencer (7B5AE74C-D270-4C10-A958-57980B212A5A): 12
  Dev-VR (D7296918-1DD6-4BDD-9DE2-64A83CC13884): 3
  Dev-LoadTimes (C2A15278-BFE7-4AFE-6C17-90FF531DF755): 1
  Private-Geometry (6EACA3D4-40EC-4CC1-B786-8BED09428FC5): 3
  Dev-AnimPhys (29E575DD-E0A3-4627-9D10-D276232CDCEA): 17
  Dev-Anim (AF43A65D-7FD3-4947-9873-3E8ED9C1BB05): 15
  Dev-ReflectionCapture (6B266CEC-1EC7-4B8F-A30B-E4D90942FC07): 1
  Dev-Automation (0DF73D61-A23F-47EA-B727-89E90C41499A): 1
  FortniteMain (601D1886-AC64-4F84-AA16-D3DE0DEAC7D6): 43
  FortniteRelease (E7086368-6B23-4C58-8439-1B7016265E91): 1
  Dev-Enterprise (9DFFBCD6-494F-0158-E221-12823C92A888): 10
  Dev-Niagara (F2AED0AC-9AFE-416F-8664-AA7FFA26D6FC): 1
  Dev-Destruction (174F1F0B-B4C6-45A5-B13F-2EE8D0FB917D): 10
  Dev-Physics-Ext (35F94A83-E258-406C-A318-09F59610247C): 40
  Dev-PhysicsMaterial-Chaos (B68FC16E-8B1B-42E2-B453-215C058844FE): 1
  Dev-CineCamera (B2E18506-4273-CFC2-A54E-F4BB758BBA07): 1
  Dev-VirtualProduction (64F58936-FD1B-42BA-BA96-7289D5D0FA4E): 1
  Dev-MediaFramework (6F0ED827-A609-4895-9C91-998D90180EA4): 2
Presizing for max 25165824 objects, including 0 objects not considered by GC, pre-allocating 0 bytes for permanent pool.
Applying CVar settings from Section [/Script/Engine.StreamingSettings] File [E:/Uni and personal work/Unreal Games/GameJams/ArmRace/Saved/Config/Windows/Engine.ini]
Setting CVar [[s.MinBulkDataSizeForAsyncLoading:131072]]
Setting CVar [[s.AsyncLoadingThreadEnabled:0]]
Setting CVar [[s.EventDrivenLoaderEnabled:1]]
Setting CVar [[s.WarnIfTimeLimitExceeded:0]]
Setting CVar [[s.TimeLimitExceededMultiplier:1.5]]
Setting CVar [[s.TimeLimitExceededMinTime:0.005]]
Setting CVar [[s.UseBackgroundLevelStreaming:1]]
Setting CVar [[s.PriorityAsyncLoadingExtraTime:15.0]]
Setting CVar [[s.LevelStreamingActorsUpdateTimeLimit:5.0]]
Setting CVar [[s.PriorityLevelStreamingActorsUpdateExtraTime:5.0]]
Setting CVar [[s.LevelStreamingComponentsRegistrationGranularity:10]]
Setting CVar [[s.UnregisterComponentsTimeLimit:1.0]]
Setting CVar [[s.LevelStreamingComponentsUnregistrationGranularity:5]]
Setting CVar [[s.FlushStreamingOnExit:1]]
Object subsystem initialized
Setting CVar [[con.DebugEarlyDefault:1]]
Setting CVar [[r.setres:1280x720]]
Setting CVar [[r.VSync:0]]
Setting CVar [[r.RHICmdBypass:0]]
Applying CVar settings from Section [/Script/Engine.RendererSettings] File [E:/Uni and personal work/Unreal Games/GameJams/ArmRace/Saved/Config/Windows/Engine.ini]
Setting CVar [[r.GPUCrashDebugging:0]]
Applying CVar settings from Section [/Script/Engine.RendererOverrideSettings] File [E:/Uni and personal work/Unreal Games/GameJams/ArmRace/Saved/Config/Windows/Engine.ini]
Applying CVar settings from Section [/Script/Engine.StreamingSettings] File [E:/Uni and personal work/Unreal Games/GameJams/ArmRace/Saved/Config/Windows/Engine.ini]
Setting CVar [[s.MinBulkDataSizeForAsyncLoading:131072]]
Setting CVar [[s.AsyncLoadingThreadEnabled:0]]
Setting CVar [[s.EventDrivenLoaderEnabled:1]]
Setting CVar [[s.WarnIfTimeLimitExceeded:0]]
Setting CVar [[s.TimeLimitExceededMultiplier:1.5]]
Setting CVar [[s.TimeLimitExceededMinTime:0.005]]
Setting CVar [[s.UseBackgroundLevelStreaming:1]]
Setting CVar [[s.PriorityAsyncLoadingExtraTime:15.0]]
Setting CVar [[s.LevelStreamingActorsUpdateTimeLimit:5.0]]
Setting CVar [[s.PriorityLevelStreamingActorsUpdateExtraTime:5.0]]
Setting CVar [[s.LevelStreamingComponentsRegistrationGranularity:10]]
Setting CVar [[s.UnregisterComponentsTimeLimit:1.0]]
Setting CVar [[s.LevelStreamingComponentsUnregistrationGranularity:5]]
Setting CVar [[s.FlushStreamingOnExit:1]]
Applying CVar settings from Section [/Script/Engine.GarbageCollectionSettings] File [E:/Uni and personal work/Unreal Games/GameJams/ArmRace/Saved/Config/Windows/Engine.ini]
Setting CVar [[gc.MaxObjectsNotConsideredByGC:1]]
Setting CVar [[gc.SizeOfPermanentObjectPool:0]]
Setting CVar [[gc.FlushStreamingOnGC:0]]
Setting CVar [[gc.NumRetriesBeforeForcingGC:10]]
Setting CVar [[gc.AllowParallelGC:1]]
Setting CVar [[gc.TimeBetweenPurgingPendingKillObjects:61.1]]
Setting CVar [[gc.MaxObjectsInEditor:25165824]]
Setting CVar [[gc.IncrementalBeginDestroyEnabled:1]]
Setting CVar [[gc.CreateGCClusters:1]]
Setting CVar [[gc.MinGCClusterSize:5]]
Setting CVar [[gc.ActorClusteringEnabled:0]]
Setting CVar [[gc.BlueprintClusteringEnabled:0]]
Setting CVar [[gc.UseDisregardForGCOnDedicatedServers:0]]
Setting CVar [[gc.MultithreadedDestructionEnabled:1]]
Applying CVar settings from Section [/Script/Engine.NetworkSettings] File [E:/Uni and personal work/Unreal Games/GameJams/ArmRace/Saved/Config/Windows/Engine.ini]
Applying CVar settings from Section [/Script/UnrealEd.CookerSettings] File [E:/Uni and personal work/Unreal Games/GameJams/ArmRace/Saved/Config/Windows/Engine.ini]
Applying CVar settings from Section [ViewDistanceQuality@3] File [E:/Uni and personal work/Unreal Games/GameJams/ArmRace/Saved/Config/Windows/Scalability.ini]
Setting CVar [[r.SkeletalMeshLODBias:0]]
Setting CVar [[r.ViewDistanceScale:1.0]]
Applying CVar settings from Section [AntiAliasingQuality@3] File [E:/Uni and personal work/Unreal Games/GameJams/ArmRace/Saved/Config/Windows/Scalability.ini]
Setting CVar [[r.PostProcessAAQuality:4]]
Applying CVar settings from Section [ShadowQuality@3] File [E:/Uni and personal work/Unreal Games/GameJams/ArmRace/Saved/Config/Windows/Scalability.ini]
Setting CVar [[r.LightFunctionQuality:1]]
Setting CVar [[r.ShadowQuality:5]]
Setting CVar [[r.Shadow.CSM.MaxCascades:10]]
Setting CVar [[r.Shadow.MaxResolution:2048]]
Setting CVar [[r.Shadow.MaxCSMResolution:2048]]
Setting CVar [[r.Shadow.RadiusThreshold:0.01]]
Setting CVar [[r.Shadow.DistanceScale:1.0]]
Setting CVar [[r.Shadow.CSM.TransitionScale:1.0]]
Setting CVar [[r.Shadow.PreShadowResolutionFactor:1.0]]
Setting CVar [[r.DistanceFieldShadowing:1]]
Setting CVar [[r.DistanceFieldAO:1]]
Setting CVar [[r.AOQuality:2]]
Setting CVar [[r.VolumetricFog:1]]
Setting CVar [[r.VolumetricFog.GridPixelSize:8]]
Setting CVar [[r.VolumetricFog.GridSizeZ:128]]
Setting CVar [[r.VolumetricFog.HistoryMissSupersampleCount:4]]
Setting CVar [[r.LightMaxDrawDistanceScale:1]]
Setting CVar [[r.CapsuleShadows:1]]
Applying CVar settings from Section [PostProcessQuality@3] File [E:/Uni and personal work/Unreal Games/GameJams/ArmRace/Saved/Config/Windows/Scalability.ini]
Setting CVar [[r.MotionBlurQuality:4]]
Setting CVar [[r.AmbientOcclusionMipLevelFactor:0.4]]
Setting CVar [[r.AmbientOcclusionMaxQuality:100]]
Setting CVar [[r.AmbientOcclusionLevels:-1]]
Setting CVar [[r.AmbientOcclusionRadiusScale:1.0]]
Setting CVar [[r.DepthOfFieldQuality:2]]
Setting CVar [[r.RenderTargetPoolMin:400]]
Setting CVar [[r.LensFlareQuality:2]]
Setting CVar [[r.SceneColorFringeQuality:1]]
Setting CVar [[r.EyeAdaptationQuality:2]]
Setting CVar [[r.BloomQuality:5]]
Setting CVar [[r.FastBlurThreshold:100]]
Setting CVar [[r.Upscale.Quality:3]]
Setting CVar [[r.Tonemapper.GrainQuantization:1]]
Setting CVar [[r.LightShaftQuality:1]]
Setting CVar [[r.Filter.SizeScale:1]]
Setting CVar [[r.Tonemapper.Quality:5]]
Setting CVar [[r.DOF.Gather.AccumulatorQuality:1        ; higher gathering accumulator quality]]
Setting CVar [[r.DOF.Gather.PostfilterMethod:1          ; Median3x3 postfilering method]]
Setting CVar [[r.DOF.Gather.EnableBokehSettings:0       ; no bokeh simulation when gathering]]
Setting CVar [[r.DOF.Gather.RingCount:4                 ; medium number of samples when gathering]]
Setting CVar [[r.DOF.Scatter.ForegroundCompositing:1    ; additive foreground scattering]]
Setting CVar [[r.DOF.Scatter.BackgroundCompositing:2    ; additive background scattering]]
Setting CVar [[r.DOF.Scatter.EnableBokehSettings:1      ; bokeh simulation when scattering]]
Setting CVar [[r.DOF.Scatter.MaxSpriteRatio:0.1         ; only a maximum of 10% of scattered bokeh]]
Setting CVar [[r.DOF.Recombine.Quality:1                ; cheap slight out of focus]]
Setting CVar [[r.DOF.Recombine.EnableBokehSettings:0    ; no bokeh simulation on slight out of focus]]
Setting CVar [[r.DOF.TemporalAAQuality:1                ; more stable temporal accumulation]]
Setting CVar [[r.DOF.Kernel.MaxForegroundRadius:0.025]]
Setting CVar [[r.DOF.Kernel.MaxBackgroundRadius:0.025]]
Applying CVar settings from Section [TextureQuality@3] File [E:/Uni and personal work/Unreal Games/GameJams/ArmRace/Saved/Config/Windows/Scalability.ini]
Setting CVar [[r.Streaming.MipBias:0]]
Setting CVar [[r.Streaming.AmortizeCPUToGPUCopy:0]]
Setting CVar [[r.Streaming.MaxNumTexturesToStreamPerFrame:0]]
Setting CVar [[r.Streaming.Boost:1]]
Setting CVar [[r.MaxAnisotropy:8]]
Setting CVar [[r.VT.MaxAnisotropy:8]]
Setting CVar [[r.Streaming.LimitPoolSizeToVRAM:0]]
Setting CVar [[r.Streaming.PoolSize:1000]]
Setting CVar [[r.Streaming.MaxEffectiveScreenSize:0]]
Applying CVar settings from Section [EffectsQuality@3] File [E:/Uni and personal work/Unreal Games/GameJams/ArmRace/Saved/Config/Windows/Scalability.ini]
Setting CVar [[r.TranslucencyLightingVolumeDim:64]]
Setting CVar [[r.RefractionQuality:2]]
Setting CVar [[r.SSR.Quality:3]]
Setting CVar [[r.SSR.HalfResSceneColor:0]]
Setting CVar [[r.SceneColorFormat:4]]
Setting CVar [[r.DetailMode:2]]
Setting CVar [[r.TranslucencyVolumeBlur:1]]
Setting CVar [[r.MaterialQualityLevel:1 ; High quality]]
Setting CVar [[r.AnisotropicMaterials:1]]
Setting CVar [[r.SSS.Scale:1]]
Setting CVar [[r.SSS.SampleSet:2]]
Setting CVar [[r.SSS.Quality:1]]
Setting CVar [[r.SSS.HalfRes:0]]
Setting CVar [[r.SSGI.Quality:3]]
Setting CVar [[r.EmitterSpawnRateScale:1.0]]
Setting CVar [[r.ParticleLightQuality:2]]
Setting CVar [[r.SkyAtmosphere.AerialPerspectiveLUT.FastApplyOnOpaque:1 ; Always have FastSkyLUT 1 in this case to avoid wrong sky]]
Setting CVar [[r.SkyAtmosphere.AerialPerspectiveLUT.SampleCountMaxPerSlice:4]]
Setting CVar [[r.SkyAtmosphere.AerialPerspectiveLUT.DepthResolution:16.0]]
Setting CVar [[r.SkyAtmosphere.FastSkyLUT:1]]
Setting CVar [[r.SkyAtmosphere.FastSkyLUT.SampleCountMin:4.0]]
Setting CVar [[r.SkyAtmosphere.FastSkyLUT.SampleCountMax:128.0]]
Setting CVar [[r.SkyAtmosphere.SampleCountMin:4.0]]
Setting CVar [[r.SkyAtmosphere.SampleCountMax:128.0]]
Setting CVar [[r.SkyAtmosphere.TransmittanceLUT.UseSmallFormat:0]]
Setting CVar [[r.SkyAtmosphere.TransmittanceLUT.SampleCount:10.0]]
Setting CVar [[r.SkyAtmosphere.MultiScatteringLUT.SampleCount:15.0]]
Applying CVar settings from Section [FoliageQuality@3] File [E:/Uni and personal work/Unreal Games/GameJams/ArmRace/Saved/Config/Windows/Scalability.ini]
Setting CVar [[foliage.DensityScale:1.0]]
Setting CVar [[grass.DensityScale:1.0]]
Applying CVar settings from Section [ShadingQuality@3] File [E:/Uni and personal work/Unreal Games/GameJams/ArmRace/Saved/Config/Windows/Scalability.ini]
Setting CVar [[r.HairStrands.SkyLighting.IntegrationType:2]]
Setting CVar [[r.HairStrands.SkyAO.SampleCount:4]]
Setting CVar [[r.HairStrands.Visibility.MSAA.SamplePerPixel:4]]
Selected Device Profile: [Windows]
Applying CVar settings loaded from the selected device profile: [Windows]
Platform has ~ 16 GB [17160523776 / 17179869184 / 16], which maps to Larger [LargestMinGB=32, LargerMinGB=12, DefaultMinGB=8, SmallerMinGB=6, SmallestMinGB=0)
Going up to parent DeviceProfile []
Applying CVar settings from Section [ViewDistanceQuality@3] File [E:/Uni and personal work/Unreal Games/GameJams/ArmRace/Saved/Config/Windows/Scalability.ini]
Setting CVar [[r.SkeletalMeshLODBias:0]]
Setting CVar [[r.ViewDistanceScale:1.0]]
Applying CVar settings from Section [AntiAliasingQuality@Cine] File [E:/Uni and personal work/Unreal Games/GameJams/ArmRace/Saved/Config/Windows/Scalability.ini]
Setting CVar [[r.PostProcessAAQuality:6]]
Applying CVar settings from Section [ShadowQuality@3] File [E:/Uni and personal work/Unreal Games/GameJams/ArmRace/Saved/Config/Windows/Scalability.ini]
Setting CVar [[r.LightFunctionQuality:1]]
Setting CVar [[r.ShadowQuality:5]]
Setting CVar [[r.Shadow.CSM.MaxCascades:10]]
Setting CVar [[r.Shadow.MaxResolution:2048]]
Setting CVar [[r.Shadow.MaxCSMResolution:2048]]
Setting CVar [[r.Shadow.RadiusThreshold:0.01]]
Setting CVar [[r.Shadow.DistanceScale:1.0]]
Setting CVar [[r.Shadow.CSM.TransitionScale:1.0]]
Setting CVar [[r.Shadow.PreShadowResolutionFactor:1.0]]
Setting CVar [[r.DistanceFieldShadowing:1]]
Setting CVar [[r.DistanceFieldAO:1]]
Setting CVar [[r.AOQuality:2]]
Setting CVar [[r.VolumetricFog:1]]
Setting CVar [[r.VolumetricFog.GridPixelSize:8]]
Setting CVar [[r.VolumetricFog.GridSizeZ:128]]
Setting CVar [[r.VolumetricFog.HistoryMissSupersampleCount:4]]
Setting CVar [[r.LightMaxDrawDistanceScale:1]]
Setting CVar [[r.CapsuleShadows:1]]
Applying CVar settings from Section [PostProcessQuality@3] File [E:/Uni and personal work/Unreal Games/GameJams/ArmRace/Saved/Config/Windows/Scalability.ini]
Setting CVar [[r.MotionBlurQuality:4]]
Setting CVar [[r.AmbientOcclusionMipLevelFactor:0.4]]
Setting CVar [[r.AmbientOcclusionMaxQuality:100]]
Setting CVar [[r.AmbientOcclusionLevels:-1]]
Setting CVar [[r.AmbientOcclusionRadiusScale:1.0]]
Setting CVar [[r.DepthOfFieldQuality:2]]
Setting CVar [[r.RenderTargetPoolMin:400]]
Setting CVar [[r.LensFlareQuality:2]]
Setting CVar [[r.SceneColorFringeQuality:1]]
Setting CVar [[r.EyeAdaptationQuality:2]]
Setting CVar [[r.BloomQuality:5]]
Setting CVar [[r.FastBlurThreshold:100]]
Setting CVar [[r.Upscale.Quality:3]]
Setting CVar [[r.Tonemapper.GrainQuantization:1]]
Setting CVar [[r.LightShaftQuality:1]]
Setting CVar [[r.Filter.SizeScale:1]]
Setting CVar [[r.Tonemapper.Quality:5]]
Setting CVar [[r.DOF.Gather.AccumulatorQuality:1        ; higher gathering accumulator quality]]
Setting CVar [[r.DOF.Gather.PostfilterMethod:1          ; Median3x3 postfilering method]]
Setting CVar [[r.DOF.Gather.EnableBokehSettings:0       ; no bokeh simulation when gathering]]
Setting CVar [[r.DOF.Gather.RingCount:4                 ; medium number of samples when gathering]]
Setting CVar [[r.DOF.Scatter.ForegroundCompositing:1    ; additive foreground scattering]]
Setting CVar [[r.DOF.Scatter.BackgroundCompositing:2    ; additive background scattering]]
Setting CVar [[r.DOF.Scatter.EnableBokehSettings:1      ; bokeh simulation when scattering]]
Setting CVar [[r.DOF.Scatter.MaxSpriteRatio:0.1         ; only a maximum of 10% of scattered bokeh]]
Setting CVar [[r.DOF.Recombine.Quality:1                ; cheap slight out of focus]]
Setting CVar [[r.DOF.Recombine.EnableBokehSettings:0    ; no bokeh simulation on slight out of focus]]
Setting CVar [[r.DOF.TemporalAAQuality:1                ; more stable temporal accumulation]]
Setting CVar [[r.DOF.Kernel.MaxForegroundRadius:0.025]]
Setting CVar [[r.DOF.Kernel.MaxBackgroundRadius:0.025]]
Applying CVar settings from Section [TextureQuality@3] File [E:/Uni and personal work/Unreal Games/GameJams/ArmRace/Saved/Config/Windows/Scalability.ini]
Setting CVar [[r.Streaming.MipBias:0]]
Setting CVar [[r.Streaming.AmortizeCPUToGPUCopy:0]]
Setting CVar [[r.Streaming.MaxNumTexturesToStreamPerFrame:0]]
Setting CVar [[r.Streaming.Boost:1]]
Setting CVar [[r.MaxAnisotropy:8]]
Setting CVar [[r.VT.MaxAnisotropy:8]]
Setting CVar [[r.Streaming.LimitPoolSizeToVRAM:0]]
Setting CVar [[r.Streaming.PoolSize:1000]]
Setting CVar [[r.Streaming.MaxEffectiveScreenSize:0]]
Applying CVar settings from Section [EffectsQuality@3] File [E:/Uni and personal work/Unreal Games/GameJams/ArmRace/Saved/Config/Windows/Scalability.ini]
Setting CVar [[r.TranslucencyLightingVolumeDim:64]]
Setting CVar [[r.RefractionQuality:2]]
Setting CVar [[r.SSR.Quality:3]]
Setting CVar [[r.SSR.HalfResSceneColor:0]]
Setting CVar [[r.SceneColorFormat:4]]
Setting CVar [[r.DetailMode:2]]
Setting CVar [[r.TranslucencyVolumeBlur:1]]
Setting CVar [[r.MaterialQualityLevel:1 ; High quality]]
Setting CVar [[r.AnisotropicMaterials:1]]
Setting CVar [[r.SSS.Scale:1]]
Setting CVar [[r.SSS.SampleSet:2]]
Setting CVar [[r.SSS.Quality:1]]
Setting CVar [[r.SSS.HalfRes:0]]
Setting CVar [[r.SSGI.Quality:3]]
Setting CVar [[r.EmitterSpawnRateScale:1.0]]
Setting CVar [[r.ParticleLightQuality:2]]
Setting CVar [[r.SkyAtmosphere.AerialPerspectiveLUT.FastApplyOnOpaque:1 ; Always have FastSkyLUT 1 in this case to avoid wrong sky]]
Setting CVar [[r.SkyAtmosphere.AerialPerspectiveLUT.SampleCountMaxPerSlice:4]]
Setting CVar [[r.SkyAtmosphere.AerialPerspectiveLUT.DepthResolution:16.0]]
Setting CVar [[r.SkyAtmosphere.FastSkyLUT:1]]
Setting CVar [[r.SkyAtmosphere.FastSkyLUT.SampleCountMin:4.0]]
Setting CVar [[r.SkyAtmosphere.FastSkyLUT.SampleCountMax:128.0]]
Setting CVar [[r.SkyAtmosphere.SampleCountMin:4.0]]
Setting CVar [[r.SkyAtmosphere.SampleCountMax:128.0]]
Setting CVar [[r.SkyAtmosphere.TransmittanceLUT.UseSmallFormat:0]]
Setting CVar [[r.SkyAtmosphere.TransmittanceLUT.SampleCount:10.0]]
Setting CVar [[r.SkyAtmosphere.MultiScatteringLUT.SampleCount:15.0]]
Applying CVar settings from Section [FoliageQuality@3] File [E:/Uni and personal work/Unreal Games/GameJams/ArmRace/Saved/Config/Windows/Scalability.ini]
Setting CVar [[foliage.DensityScale:1.0]]
Setting CVar [[grass.DensityScale:1.0]]
Applying CVar settings from Section [ShadingQuality@3] File [E:/Uni and personal work/Unreal Games/GameJams/ArmRace/Saved/Config/Windows/Scalability.ini]
Setting CVar [[r.HairStrands.SkyLighting.IntegrationType:2]]
Setting CVar [[r.HairStrands.SkyAO.SampleCount:4]]
Setting CVar [[r.HairStrands.Visibility.MSAA.SamplePerPixel:4]]
Applying CVar settings from Section [Startup] File [../../../Engine/Config/ConsoleVariables.ini]
Setting CVar [[net.UseAdaptiveNetUpdateFrequency:0]]
Setting CVar [[p.chaos.AllowCreatePhysxBodies:1]]
Setting CVar [[fx.SkipVectorVMBackendOptimizations:1]]
Applying CVar settings from Section [ConsoleVariables] File [E:/Uni and personal work/Unreal Games/GameJams/ArmRace/Saved/Config/Windows/Engine.ini]
Applying CVar settings from Section [ConsoleVariables] File [E:/Uni and personal work/Unreal Games/GameJams/ArmRace/Saved/Config/Windows/Editor.ini]
Computer: DESKTOP-FTRSJ0T
User: Candyman
CPU Page size=4096, Cores=4
High frequency timer resolution =10.000000 MHz
Memory total: Physical=16.0GB (16GB approx)
Platform Memory Stats for Windows
Process Physical Memory: 131.73 MB used, 131.73 MB peak
Process Virtual Memory: 110.87 MB used, 110.87 MB peak
Physical Memory: 10522.25 MB used,  5843.30 MB free, 16365.55 MB total
Virtual Memory: 134208232.00 MB used,  9496.02 MB free, 134217728.00 MB total
WindowsPlatformFeatures enabled
Physics initialised using underlying interface: PhysX
Using OS detected language (en-GB).
Using OS detected locale (bg-BG).
No specific localization for 'en-GB' exists, so the 'en' localization will be used.
Setting process to per monitor DPI aware
IME system deactivated.
New Slate User Created.  User Index 0, Is Virtual User: 0
Slate User Registered.  User Index 0, Is Virtual User: 0
Failed to initialize OpenVR with code 110
D3D11 min allowed feature level: 11_0
D3D11 max allowed feature level: 11_0
D3D11 adapters:
   0. 'Radeon RX 560 Series' (Feature Level 11_0)
      4075/0/8182 MB DedicatedVideo/DedicatedSystem/SharedSystem, Outputs:2, VendorId:0x1002
   1. 'Microsoft Basic Render Driver' (Feature Level 11_0)
      0/0/8182 MB DedicatedVideo/DedicatedSystem/SharedSystem, Outputs:0, VendorId:0x1414
Chosen D3D11 Adapter: 0
Creating new Direct3DDevice
    GPU DeviceId: 0x67ef (for the marketing name, search the web for "GPU Device Id")
EnumDisplayDevices:
   0. 'Radeon RX 560 Series' (P:1 D:1)
   1. 'Radeon RX 560 Series' (P:0 D:1)
   2. 'Radeon RX 560 Series' (P:0 D:0)
   3. 'Radeon RX 560 Series' (P:0 D:0)
   4. 'Radeon RX 560 Series' (P:0 D:0)
   5. 'Radeon RX 560 Series' (P:0 D:0)
DebugString: FoundDriverCount:6 
    Adapter Name: Radeon RX 560 Series
  Driver Version: Adrenalin 21.30.23.01 (internal:30.0.13023.1012, unified:30.0.13023.1012)
     Driver Date: 10-18-2021
Texture pool is 2424 MB (70% of 3464 MB)
RHI has support for 64 bit atomics
Async texture creation enabled
Array index from any shader is supported
GPU Timing Frequency: 25.000000 (Debug: 2 1)
Loaded TargetPlatform 'AllDesktop'
Loaded TargetPlatform 'Android'
Loaded TargetPlatform 'Android_ASTC'
Loaded TargetPlatform 'Android_DXT'
Loaded TargetPlatform 'Android_ETC2'
Loaded TargetPlatform 'AndroidClient'
Loaded TargetPlatform 'Android_ASTCClient'
Loaded TargetPlatform 'Android_DXTClient'
Loaded TargetPlatform 'Android_ETC2Client'
Loaded TargetPlatform 'Android_Multi'
Loaded TargetPlatform 'Android_MultiClient'
Loaded TargetPlatform 'IOSClient'
Loaded TargetPlatform 'IOS'
Loaded TargetPlatform 'Linux'
Loaded TargetPlatform 'LinuxNoEditor'
Loaded TargetPlatform 'LinuxClient'
Loaded TargetPlatform 'LinuxServer'
Loaded TargetPlatform 'LinuxAArch64NoEditor'
Loaded TargetPlatform 'LinuxAArch64Client'
Loaded TargetPlatform 'LinuxAArch64Server'
Loaded TargetPlatform 'Lumin'
Loaded TargetPlatform 'LuminClient'
Loaded TargetPlatform 'MacNoEditor'
Loaded TargetPlatform 'Mac'
Loaded TargetPlatform 'MacClient'
Loaded TargetPlatform 'MacServer'
Loaded TargetPlatform 'TVOSClient'
Loaded TargetPlatform 'TVOS'
Loaded TargetPlatform 'WindowsNoEditor'
Loaded TargetPlatform 'Windows'
Loaded TargetPlatform 'WindowsClient'
Loaded TargetPlatform 'WindowsServer'
Building Assets For Windows
Lib vorbis DLL was dynamically loaded.
Ray tracing is disabled. Reason: r.RayTracing=0.
Guid format shader working directory is -21 characters bigger than the processId version (../../../../../../Uni and personal work/Unreal Games/GameJams/ArmRace/Intermediate/Shaders/WorkingDirectory/10168/).
Cleaned the shader compiler working directory 'C:/Users/Candyman/AppData/Local/Temp/UnrealShaderWorkingDir/F132BF4146EF2E2706AD06A40C5524BD/'.
Cannot use XGE Shader Compiler as Incredibuild is not installed on this machine.
Using Local Shader Compiler.
Max Cache Size: 512 MB
Loaded boot cache 0.11s 77MB C:/Users/Candyman/AppData/Local/UnrealEngine/4.26/DerivedDataCache/Boot.ddc.
Loaded Boot cache: C:/Users/Candyman/AppData/Local/UnrealEngine/4.26/DerivedDataCache/Boot.ddc
FDerivedDataBackendGraph:  Pak pak cache file ../../../../../../Uni and personal work/Unreal Games/GameJams/ArmRace/DerivedDataCache/DDC.ddp not found, will not use a pak cache.
Unable to find inner node Pak for hierarchical cache Hierarchy.
FDerivedDataBackendGraph:  CompressedPak pak cache file ../../../../../../Uni and personal work/Unreal Games/GameJams/ArmRace/DerivedDataCache/Compressed.ddp not found, will not use a pak cache.
Unable to find inner node CompressedPak for hierarchical cache Hierarchy.
Pak cache opened for reading ../../../Engine/DerivedDataCache/Compressed.ddp.
FDerivedDataBackendGraph:  EnterprisePak pak cache file ../../../Enterprise/DerivedDataCache/Compressed.ddp not found, will not use a pak cache.
Unable to find inner node EnterprisePak for hierarchical cache Hierarchy.
Speed tests for C:/Users/Candyman/AppData/Local/UnrealEngine/Common/DerivedDataCache took 0.01 seconds
Performance to C:/Users/Candyman/AppData/Local/UnrealEngine/Common/DerivedDataCache: Latency=0.07ms. RandomReadSpeed=713.61MBs, RandomWriteSpeed=90.26MBs. Assigned SpeedClass 'Local'
Using Local data cache path C:/Users/Candyman/AppData/Local/UnrealEngine/Common/DerivedDataCache: Writable
Shared data cache path not found in *engine.ini, will not use an Shared cache.
Unable to find inner node Shared for hierarchical cache Hierarchy.
Using FreeType 2.10.0
SlateFontServices - WITH_FREETYPE: 1, WITH_HARFBUZZ: 1
FAssetRegistry took 0.0040 seconds to start up
Selected Device Profile: [Windows]
Active device profile: [000002097A9D2D00][000002097A05AF00 49] Windows
Profiles: [000002097A9D2D00][000002097A05AF00 49] Windows, [000002097A861600][000002097A063080 49] WindowsNoEditor, [000002097A9D1700][000002097A06F200 49] WindowsServer, [000002097A862E00][000002097A073380 49] WindowsClient, [000002097A9D2700][000002097A077500 49] IOS, [000002097A861400][000002097A05F640 49] iPadAir, [000002097A9D1500][000002097A07B780 49] iPadAir2, [000002097A810300][000002097A0839C0 49] IPadPro, [000002097A810400][000002097A07FA00 49] iPadAir3, [000002097A9D2800][000002097A08BB80 49] iPadAir4, [000002097A812600][000002097A08FD00 49] iPadMini2, [000002097A9D1600][000002097A0AA1C0 49] iPadMini3, [000002097A810700][000002097A0AE340 49] iPadMini4, [000002097A9D0D00][000002097A0B24C0 49] iPadMini5, [000002097A803B00][000002097A0BA780 49] iPhone6, [000002097A803C00][000002097A0B67C0 49] iPodTouch6, [000002097A811100][000002097A0E2A80 49] iPhone7, [000002097A812B00][000002097A0DEAC0 49] iPodTouch7, [000002097A801A00][000002097A0E6C40 49] iPhone5S, [000002097A812400][000002097A0EADC0 49] iPhone6Plus, [000002097A803A00][000002097A0EEF40 49] iPhone6S, [000002097A812500][000002097A0F30C0 49] iPhone6SPlus, [000002097A801D00][000002097A0F7240 49] iPhone7Plus, [000002097A813B00][000002097A0FB3C0 49] iPhoneSE, [000002097A802300][000002097A0FF540 49] iPhone8, [000002097A812D00][000002097A1036C0 49] iPhone8Plus, [000002097A802000][000002097A087800 49] iPhoneX, [000002097A812200][000002097A107940 49] iPhoneXS, [000002097A801C00][000002097A10BA80 49] iPhoneXSMax, [000002097A811A00][000002097A113C00 49] iPhoneXR, [000002097A800100][000002097A1160C0 49] iPhone11, [000002097A812700][000002097A11A240 49] iPhone11Pro, [000002097A802400][000002097B1303C0 49] iPhone11ProMax, [000002097A811300][000002097B134540 49] iPhoneSE2, [000002097A801B00][000002097B1386C0 49] iPhone12Mini, [000002097A812E00][000002097B13C840 49] iPhone12, [000002097A800600][000002097B1409C0 49] iPhone12Pro, [000002097A811F00][000002097B144B40 49] iPhone12ProMax, [000002097A803400][000002097B148CC0 49] iPadPro105, [000002097A813D00][000002097B14CE40 49] iPadPro129, [000002097A800A00][000002097B150FC0 49] iPadPro97, [000002097A810800][000002097B155140 49] iPadPro2_129, [000002097A800C00][000002097B1592C0 49] iPad5, [000002097A812300][000002097B15D440 49] iPad6, [000002097A801500][000002097B1615C0 49] iPad7, [000002097A813100][000002097B165740 49] iPad8, [000002097A800300][000002097A10F880 49] iPadPro11, [000002097A810100][000002097B1699C0 49] iPadPro2_11, [000002097A803800][000002097B16DB00 49] iPadPro3_129, [000002097A810200][000002097B171C40 49] iPadPro4_129, [000002097A801E00][000002097B178100 49] AppleTV, [000002097A811800][000002097B17C280 49] AppleTV4K, [000002097A803000][000002097B180400 49] TVOS, [000002097A813700][000002097B184580 49] Mac, [000002097A863A00][000002097B188700 49] MacClient, [000002097A803100][000002097B18C880 49] MacNoEditor, [000002097A863000][000002097B190A00 49] MacServer, [000002097A801700][000002097B194B80 49] Linux, [000002097A860100][000002097B198D00 49] LinuxAArch64, [000002097AB04900][000002097B19CE80 49] LinuxNoEditor, [000002097A861200][000002097B1A1000 49] LinuxAArch64NoEditor, [000002097A813200][000002097B1A5180 49] LinuxClient, [000002097A862000][000002097B1A9300 49] LinuxAArch64Client, [000002097A813F00][000002097B1AD480 49] LinuxServer, [000002097A860800][000002097B1B1600 49] LinuxAArch64Server, [000002097A811B00][000002097B1B5780 49] Android, [000002097A860B00][000002097B1758C0 49] Android_Low, [000002097A813A00][000002097B1B9A00 49] Android_Mid, [000002097A861300][000002097B1BDB40 49] Android_High, [000002097A810600][000002097B1C1C80 49] Android_Default, [000002097A863700][000002097B1C8140 49] Android_Adreno4xx, [000002097A811900][000002097B1CC2C0 49] Android_Adreno5xx_Low, [000002097A861C00][000002097B1D0440 49] Android_Adreno5xx, [000002097A813800][000002097B1D45C0 49] Android_Adreno6xx, [000002097A861900][000002097B1D8740 49] Android_Adreno6xx_Vulkan, [000002097A813E00][000002097B1DC8C0 49] Android_Mali_T6xx, [000002097A862900][000002097B1E0A40 49] Android_Mali_T7xx, [000002097A810900][000002097B1E4BC0 49] Android_Mali_T8xx, [000002097A861000][000002097B1E8D40 49] Android_Mali_G71, [000002097A812C00][000002097B1ECEC0 49] Android_Mali_G72, [000002097A863600][000002097B1F1040 49] Android_Mali_G72_Vulkan, [000002097A810F00][000002097B1F51C0 49] Android_Mali_G76, [000002097A863300][000002097B1F9340 49] Android_Mali_G76_Vulkan, [000002097A811700][000002097B1FD4C0 49] Android_Mali_G77, [000002097A863E00][000002097B201640 49] Android_Mali_G77_Vulkan, [000002097A811200][000002097B2057C0 49] Android_Vulkan_SM5, [000002097A860700][000002097B209940 49] Android_PowerVR_G6xxx, [000002097A811400][000002097B1C5A80 49] Android_PowerVR_GT7xxx, [000002097A863F00][000002097B20DBC0 49] Android_PowerVR_GE8xxx, [000002097A811600][000002097B211D00 49] Android_PowerVR_GM9xxx, [000002097A862800][000002097B2181C0 49] Android_PowerVR_GM9xxx_Vulkan, [000002097A811C00][000002097B21C340 49] Android_TegraK1, [000002097A862700][000002097B2204C0 49] Android_Unknown_Vulkan, [000002097A810E00][000002097B224640 49] Lumin, [000002097A862F00][000002097B2287C0 49] Lumin_Desktop, [000002097A813500][000002097B22C940 49] HoloLens, 
Using QuadricMeshReduction for automatic static mesh reduction
Using SimplygonMeshReduction for automatic skeletal mesh reduction
Using ProxyLODMeshReduction for automatic mesh merging
No distributed automatic mesh merging module available
No distributed automatic mesh merging module available
ArmRace 1.0.0, NetCL: 14830424, EngineNetVer: 16, GameNetVer: 0 (Checksum: 3136221776)
PokeAHoleMaterial loaded successfully
Processed 22 localized package path(s) for 1 prioritized culture(s) in 0.079008 seconds
16831 objects as part of root set at end of initial load.
4209728 out of 0 bytes used by permanent object pool.
CloseDisregardForGC: 0/0 objects in disregard for GC pool
Initializing TcpMessaging bridge
Initializing bridge on interface 0.0.0.0:0 to multicast group 230.0.0.1:6666.
FPlatformStackWalk::StackWalkAndDump -  0.906 s
=== Handled ensure: ===

Ensure condition failed: !NeedsInitialization() [File:D:/Build/++UE4/Sync/Engine/Source/Runtime/Engine/Private/Components/ActorComponent.cpp] [Line: 1913]
SetIsReplicatedByDefault is preferred during Component Construction.
Stack: 
[Callstack] 0x00007ff96ba52709 UE4Editor-Engine.dll!UnknownFunction []
[Callstack] 0x00007ff96a428d2d UE4Editor-Engine.dll!UnknownFunction []
[Callstack] 0x00007ff94b739ace UE4Editor-ArmRace.dll!UHealthComponent::UHealthComponent() [E:\Uni and personal work\Unreal Games\GameJams\ArmRace\Source\ArmRace\Components\HealthComponent.cpp:20]
[Callstack] 0x00007ff96ea6c203 UE4Editor-CoreUObject.dll!UnknownFunction []
[Callstack] 0x00007ff96ed2fabf UE4Editor-CoreUObject.dll!UnknownFunction []
[Callstack] 0x00007ff96ed1287f UE4Editor-CoreUObject.dll!UnknownFunction []
[Callstack] 0x00007ff96ec42305 UE4Editor-CoreUObject.dll!UnknownFunction []
[Callstack] 0x00007ff9691099ea UE4Editor-Core.dll!UnknownFunction []
[Callstack] 0x00007ff9691312a8 UE4Editor-Core.dll!UnknownFunction []
[Callstack] 0x00007ff9a67de7d3 UE4Editor-Projects.dll!UnknownFunction []
[Callstack] 0x00007ff9a67deaea UE4Editor-Projects.dll!UnknownFunction []
[Callstack] 0x00007ff7af9e53a2 UE4Editor.exe!UnknownFunction []
[Callstack] 0x00007ff7af9e8a62 UE4Editor.exe!UnknownFunction []
[Callstack] 0x00007ff7af9e0eec UE4Editor.exe!UnknownFunction []
[Callstack] 0x00007ff7af9e125a UE4Editor.exe!UnknownFunction []
[Callstack] 0x00007ff7af9f52bd UE4Editor.exe!UnknownFunction []
[Callstack] 0x00007ff7af9f7fea UE4Editor.exe!UnknownFunction []
[Callstack] 0x00007ff9c1077034 KERNEL32.DLL!UnknownFunction []
[Callstack] 0x00007ff9c2b22651 ntdll.dll!UnknownFunction []

               SubmitErrorReport -  0.000 s
